…
Change the above data to long format for easier visualization

``` r
forward_cor_simdata_cleaned <- forward_cor_simdata %>% 
  select(-1) %>% 
  mutate(cor_val = factor(cor_val)) %>% 
  pivot_longer(cols = c(pct_strong_vec, pct_wai_vec, pct_wbc_vec, type1_error_vec, power_vec),
                           names_to = "metric") %>% 
  mutate(method = "forward")

forward_cor_simdata_cleaned
```

    ## # A tibble: 2,500 × 4
    ##    cor_val metric          value method 
    ##    <fct>   <chr>           <dbl> <chr>  
    ##  1 0.1     pct_strong_vec  100   forward
    ##  2 0.1     pct_wai_vec     100   forward
    ##  3 0.1     pct_wbc_vec      80   forward
    ##  4 0.1     type1_error_vec  20   forward
    ##  5 0.1     power_vec        92   forward
    ##  6 0.1     pct_strong_vec  100   forward
    ##  7 0.1     pct_wai_vec      80   forward
    ##  8 0.1     pct_wbc_vec      50   forward
    ##  9 0.1     type1_error_vec  13.3 forward
    ## 10 0.1     power_vec        72   forward
    ## # … with 2,490 more rows
``` r
lasso_cor_simdata_cleaned <- lasso_cor_simdata %>% 
  select(-1) %>% 
  mutate(cor_val = factor(cor_val)) %>% 
  pivot_longer(cols = c(pct_strong_vec, pct_wai_vec, pct_wbc_vec, type1_error_vec, power_vec),
                           names_to = "metric") %>% 
  #group_by(cor_val, metric) %>% 
  #summarize(mean_pct = mean(value))
  mutate(method = "lasso")

combined_cor_simdata <- rbind(forward_cor_simdata_cleaned, lasso_cor_simdata_cleaned)
combined_cor_simdata
```

    ## # A tibble: 5,000 × 4
    ##    cor_val metric          value method 
    ##    <fct>   <chr>           <dbl> <chr>  
    ##  1 0.1     pct_strong_vec  100   forward
    ##  2 0.1     pct_wai_vec     100   forward
    ##  3 0.1     pct_wbc_vec      80   forward
    ##  4 0.1     type1_error_vec  20   forward
    ##  5 0.1     power_vec        92   forward
    ##  6 0.1     pct_strong_vec  100   forward
    ##  7 0.1     pct_wai_vec      80   forward
    ##  8 0.1     pct_wbc_vec      50   forward
    ##  9 0.1     type1_error_vec  13.3 forward
    ## 10 0.1     power_vec        72   forward
    ## # … with 4,990 more rows
…
``` r
forward_wbc_simdata_cleaned <- forward_wbc_simdata %>% 
  select(-1) %>% 
  mutate(wbc_num = factor(wbc_num)) %>% 
  pivot_longer(cols = c(pct_strong_vec, pct_wai_vec, pct_wbc_vec, type1_error_vec, power_vec),
                           names_to = "metric") %>% 
  mutate(method = "forward")

forward_wbc_simdata_cleaned
```

    ## # A tibble: 2,000 × 4
    ##    wbc_num metric          value method 
    ##    <fct>   <chr>           <dbl> <chr>  
    ##  1 2       pct_strong_vec   60   forward
    ##  2 2       pct_wai_vec      10   forward
    ##  3 2       pct_wbc_vec      50   forward
    ##  4 2       type1_error_vec  39.1 forward
    ##  5 2       power_vec        29.4 forward
    ##  6 2       pct_strong_vec   40   forward
    ##  7 2       pct_wai_vec      30   forward
    ##  8 2       pct_wbc_vec       0   forward
    ##  9 2       type1_error_vec  39.1 forward
    ## 10 2       power_vec        29.4 forward
    ## # … with 1,990 more rows
``` r
lasso_wbc_simdata_cleaned <- lasso_wbc_simdata %>% 
  select(-1) %>% 
  mutate(wbc_num = factor(wbc_num)) %>% 
  pivot_longer(cols = c(pct_strong_vec, pct_wai_vec, pct_wbc_vec, type1_error_vec, power_vec),
                           names_to = "metric") %>% 
  #group_by(cor_val, metric) %>% 
  #summarize(mean_pct = mean(value))
  mutate(method = "lasso")

combined_wbc_simdata <- rbind(forward_wbc_simdata_cleaned, lasso_wbc_simdata_cleaned)
combined_wbc_simdata
```

    ## # A tibble: 4,000 × 4
    ##    wbc_num metric          value method 
    ##    <fct>   <chr>           <dbl> <chr>  
    ##  1 2       pct_strong_vec   60   forward
    ##  2 2       pct_wai_vec      10   forward
    ##  3 2       pct_wbc_vec      50   forward
    ##  4 2       type1_error_vec  39.1 forward
    ##  5 2       power_vec        29.4 forward
    ##  6 2       pct_strong_vec   40   forward
    ##  7 2       pct_wai_vec      30   forward
    ##  8 2       pct_wbc_vec       0   forward
    ##  9 2       type1_error_vec  39.1 forward
    ## 10 2       power_vec        29.4 forward
    ## # … with 3,990 more rows
…
